<?xml version="1.0" encoding="UTF-8" standalone="no"?>
<!-- Generator: Adobe Illustrator 16.0.0, SVG Export Plug-In . SVG Version: 6.00 Build 0)  -->

<svg
   xmlns:dc="http://purl.org/dc/elements/1.1/"
   xmlns:cc="http://creativecommons.org/ns#"
   xmlns:rdf="http://www.w3.org/1999/02/22-rdf-syntax-ns#"
   xmlns:svg="http://www.w3.org/2000/svg"
   xmlns="http://www.w3.org/2000/svg"
   xmlns:sodipodi="http://sodipodi.sourceforge.net/DTD/sodipodi-0.dtd"
   xmlns:inkscape="http://www.inkscape.org/namespaces/inkscape"
   version="1.1"
   id="Capa_1"
   x="0px"
   y="0px"
   width="119.06652"
   height="115.71632"
   viewBox="0 0 119.06651 115.71631"
   enable-background="new 0 0 595.28 841.89"
   xml:space="preserve"
   sodipodi:docname="logo.svg"
   inkscape:version="0.92.4 (unknown)"><metadata
   id="metadata13"><rdf:RDF><cc:Work
       rdf:about=""><dc:format>image/svg+xml</dc:format><dc:type
         rdf:resource="http://purl.org/dc/dcmitype/StillImage" /></cc:Work></rdf:RDF></metadata><defs
   id="defs11" /><sodipodi:namedview
   pagecolor="#ffffff"
   bordercolor="#666666"
   borderopacity="1"
   objecttolerance="10"
   gridtolerance="10"
   guidetolerance="10"
   inkscape:pageopacity="0"
   inkscape:pageshadow="2"
   inkscape:window-width="1366"
   inkscape:window-height="704"
   id="namedview9"
   showgrid="false"
   showguides="true"
   inkscape:guide-bbox="true"
   inkscape:zoom="1.5857387"
   inkscape:cx="53.714143"
   inkscape:cy="41.99302"
   inkscape:window-x="0"
   inkscape:window-y="27"
   inkscape:window-maximized="1"
   inkscape:current-layer="Capa_1"><sodipodi:guide
     position="-2.5230415,165.13325"
     orientation="0,1"
     id="guide3718"
     inkscape:locked="false" /></sodipodi:namedview>
<g
   id="g6"
   transform="translate(-5.6040002e-4,-4.023296)">
	<path
   d="m 94.544,47.02 2.06,-1.781 c 2.843,-2.162 2.923,-1.835 5.163,-5.535 1.843,-3.046 3.268,-6.708 3.466,-11.015 C 105.655,19.581 100.975,12.257 95.921,8.705 89.833,4.43 81.156,2.213 73.024,5.863 64.767,9.564 63.181,12.715 59.483,21.381 57.848,17.729 57.055,14.519 54.794,12.115 45.702,2.445 32.078,1.799 23.304,8.638 c -4.896,3.82 -9.74,9.994 -9.519,19.535 0.229,9.974 5.431,14.537 10.7,18.752 -5.163,0.345 -7.264,0.105 -11.607,2.232 -2.933,1.436 -6.134,3.928 -7.94,6.328 -9.897,13.149 -4.185,31.593 10.632,36.624 12.016,4.081 17.584,-1.702 22.225,-3.883 -2.162,10.04 -2.646,13.786 2.955,22.003 3.127,4.586 10.029,9.574 18.896,9.51 11.813,-0.086 21.142,-8.891 22.883,-19.271 1.047,-6.258 -0.671,-7.625 -1.292,-12.465 4.479,4.217 13.506,6.941 21.659,4.321 C 126.655,84.69 124.533,47.02 94.544,47.02 M 52.143,60.775 c -1.332,2.37 -6.609,7.903 -8.635,10.367 C 38.482,77.26 30.112,86.332 21.07,85.027 3.578,82.505 4.666,56.681 20.944,55.235 c 6.157,-0.546 26.877,2.822 31.199,5.54 z M 29.926,40.544 C 21.685,35.388 18.545,24.862 26.387,16.816 c 7.076,-7.261 20.266,-5.039 24.061,3.735 3.1,7.166 4.4,22.944 4.738,31.625 C 48.295,50.388 35.479,44.019 29.926,40.544 M 63.843,52.08 C 64.203,43.585 65.439,27.587 68.692,20.406 72.443,12.13 85.248,9.093 92.526,16.683 99.2,23.646 99.307,34.358 88.634,40.84 84.325,43.458 69.091,51.179 63.843,52.08 Z M 87.161,82.175 C 82.773,78.893 79.994,75.624 76.455,71.977 73.406,68.833 69.19,64.35 66.888,60.776 v 0 -0.001 c 0,0.001 0,0.001 0,0.001 3.475,-2.497 23.44,-5.608 28.933,-5.608 8.668,0 15.033,6.509 15.033,14.779 0,12.241 -13.636,19.746 -23.693,12.228"
   id="path2"
   inkscape:connector-curvature="0"
   style="fill:#fcfcfc" />
	<path
   d="M 59.705,65.903 C 57.117,67.794 47.98,85.057 46.053,89.987 41.75,100.983 48.149,111.233 59.12,111.478 70.095,111.723 77.46,101.532 73.079,90.131 69.51,80.847 64.22,73.365 59.705,65.903 Z"
   id="path4"
   inkscape:connector-curvature="0"
   style="fill:#c32128" />
</g>
</svg>